{
  "project_info": {
    "project_number": "406606601003",
    "firebase_url": "https://tictactoegame-b8ac2.firebaseio.com",
    "project_id": "tictactoegame-b8ac2",
    "storage_bucket": "tictactoegame-b8ac2.appspot.com"
  },
  "client": [
    {
      "client_info": {
        "mobilesdk_app_id": "1:406606601003:android:5a64f4e80d55752a66036e",
        "android_client_info": {
          "package_name": "com.ssaczkowski.tictactoe"
        }
      },
      "oauth_client": [
        {
          "client_id": "406606601003-0v1gna6u8e9rb7s8qnaivv4kve7o3phu.apps.googleusercontent.com",
          "client_type": 1,
          "android_info": {
            "package_name": "com.ssaczkowski.tictactoe",
            "certificate_hash": "a76fca3a36f97ef5dfb2064447d38b8d9078837d"
          }
        },
        {
          "client_id": "406606601003-lub5m2gan7a3934hj536vnb3i0d27l31.apps.googleusercontent.com",
          "client_type": 3
        }
      ],
      "api_key": [
        {
          "current_key": "AIzaSyABElN2LgAGVBFmrYu5dxz2vaZHisj9EmY"
        }
      ],
      "services": {
        "appinvite_service": {
          "other_platform_oauth_client": [
            {
              "client_id": "406606601003-lub5m2gan7a3934hj536vnb3i0d27l31.apps.googleusercontent.com",
              "client_type": 3
            }
          ]
        }
      }
    }
  ],
  "configuration_version": "1"
}